[gd_resource type="StyleBoxTexture" load_steps=3 format=2]

[sub_resource type="Image" id=1]
data = {
"data": PoolByteArray( 0, 0, 0, 0, 0, 0, 0, 0, 0, 0, 0, 0, 0, 0, 0, 0, 0, 0, 0, 0, 0, 0, 0, 0, 0, 0, 0, 0, 0, 0, 0, 0, 0, 0, 0, 0, 0, 0, 0, 0, 0, 0, 0, 0, 0, 0, 0, 0, 0, 0, 0, 0, 0, 0, 0, 0, 0, 0, 0, 0, 0, 0, 0, 0, 0, 0, 0, 0, 0, 0, 0, 0, 0, 0, 0, 0, 0, 0, 0, 0, 0, 0, 0, 0, 0, 0, 0, 0, 0, 0, 0, 0, 0, 0, 0, 0, 0, 0, 0, 0, 0, 0, 0, 0, 0, 0, 0, 0, 0, 0, 0, 0, 62, 62, 62, 0, 124, 124, 124, 0, 124, 124, 124, 0, 62, 62, 62, 0, 0, 0, 0, 0, 0, 0, 0, 0, 0, 0, 0, 0, 0, 0, 0, 0, 0, 0, 0, 0, 0, 0, 0, 0, 0, 0, 0, 0, 180, 180, 180, 4, 248, 248, 248, 99, 248, 248, 248, 167, 248, 248, 248, 167, 248, 248, 248, 99, 180, 180, 180, 4, 0, 0, 0, 0, 0, 0, 0, 0, 0, 0, 0, 0, 0, 0, 0, 0, 0, 0, 0, 0, 62, 62, 62, 0, 247, 247, 247, 98, 248, 248, 248, 186, 248, 248, 248, 186, 248, 248, 248, 186, 248, 248, 248, 186, 247, 247, 247, 98, 62, 62, 62, 0, 0, 0, 0, 0, 0, 0, 0, 0, 0, 0, 0, 0, 0, 0, 0, 0, 124, 124, 124, 0, 248, 248, 248, 166, 248, 248, 248, 186, 248, 248, 248, 186, 248, 248, 248, 186, 248, 248, 248, 186, 248, 248, 248, 166, 124, 124, 124, 0, 0, 0, 0, 0, 0, 0, 0, 0, 0, 0, 0, 0, 0, 0, 0, 0, 124, 124, 124, 0, 248, 248, 248, 166, 248, 248, 248, 186, 248, 248, 248, 186, 248, 248, 248, 186, 248, 248, 248, 186, 248, 248, 248, 166, 124, 124, 124, 0, 0, 0, 0, 0, 0, 0, 0, 0, 0, 0, 0, 0, 0, 0, 0, 0, 62, 62, 62, 0, 247, 247, 247, 98, 248, 248, 248, 186, 248, 248, 248, 186, 248, 248, 248, 186, 248, 248, 248, 186, 247, 247, 247, 98, 62, 62, 62, 0, 0, 0, 0, 0, 0, 0, 0, 0, 0, 0, 0, 0, 0, 0, 0, 0, 0, 0, 0, 0, 180, 180, 180, 5, 248, 248, 248, 99, 248, 248, 248, 167, 248, 248, 248, 167, 248, 248, 248, 99, 180, 180, 180, 5, 0, 0, 0, 0, 0, 0, 0, 0, 0, 0, 0, 0, 0, 0, 0, 0, 0, 0, 0, 0, 0, 0, 0, 0, 0, 0, 0, 0, 62, 62, 62, 0, 124, 124, 124, 0, 124, 124, 124, 0, 62, 62, 62, 0, 0, 0, 0, 0, 0, 0, 0, 0, 0, 0, 0, 0, 0, 0, 0, 0, 0, 0, 0, 0, 0, 0, 0, 0, 0, 0, 0, 0, 0, 0, 0, 0, 0, 0, 0, 0, 0, 0, 0, 0, 0, 0, 0, 0, 0, 0, 0, 0, 0, 0, 0, 0, 0, 0, 0, 0, 0, 0, 0, 0, 0, 0, 0, 0, 0, 0, 0, 0, 0, 0, 0, 0, 0, 0, 0, 0, 0, 0, 0, 0, 0, 0, 0, 0, 0, 0, 0, 0, 0, 0, 0, 0, 0, 0, 0, 0, 0, 0, 0, 0, 0, 0, 0, 0, 0, 0, 0, 0, 0, 0, 0, 0 ),
"format": "RGBA8",
"height": 12,
"mipmaps": false,
"width": 12
}

[sub_resource type="ImageTexture" id=2]
flags = 0
flags = 0
image = SubResource( 1 )
size = Vector2( 12, 12 )

[resource]
content_margin_left = 2.0
content_margin_right = 2.0
content_margin_top = 2.0
content_margin_bottom = 2.0
texture = SubResource( 2 )
region_rect = Rect2( 0, 0, 12, 12 )
margin_left = 5.0
margin_right = 5.0
margin_top = 5.0
margin_bottom = 5.0
